物种进化分析笔记 | Hexo
…
2
3
4
5
6
7
8
9
10
11
12
13
14

## # A tibble: 36 × 5
##    parent  node branch.length label       group
##     <int> <int>         <dbl> <chr>       <fct>
##  1     26     1       0.0102  MT268280.1  1    
##  2     26     2       0.00610 FJ548853.1  1    
##  3     25     3       0.00733 OQ883907.1  1    
##  4     24     4       0.00288 OQ357724.1  1    
##  5     27     5       0       NC_038291.1 1    
##  6     27     6       0.00921 AF331831.1  1    
##  7     28     7       0.0821  JN660150.1  1    
##  8     29     8       0.0547  MW803134.1  1    
##  9     30     9       0.0601  MZ416787.1  1    
## 10     30    10       0.0816  JN654459.1  1    
## # ℹ 26 more rows
…
